riscv/bin/cpu_build.vcd
$date
	Fri Nov 19 09:43:00 2021
$end
$version
	Icarus Verilog
$end
$timescale
	1ps
$end
$scope module dual_port_ram_sync $end
$var wire 6 ! addr_a [5:0] $end
$var wire 6 " addr_b [5:0] $end
$var wire 1 # clk $end
$var wire 8 $ din_a [7:0] $end
$var wire 8 % dout_a [7:0] $end
$var wire 8 & dout_b [7:0] $end
$var wire 1 ' we $end
$var reg 6 ( q_addr_a [5:0] $end
$var reg 6 ) q_addr_b [5:0] $end
$upscope $end
$scope module testbench $end
$var reg 1 * clk $end
$var reg 1 + rst $end
$scope module top $end
$var wire 1 * EXCLK $end
$var wire 1 , Rx $end
$var wire 1 + btnC $end
$var wire 1 - clk $end
$var wire 32 . cpu_dbgreg_dout [31:0] $end
$var wire 8 / cpu_ram_dout [7:0] $end
$var wire 8 0 hci_io_din [7:0] $end
$var wire 1 1 hci_io_wr $end
$var wire 8 2 hci_ram_din [7:0] $end
$var wire 1 3 led $end
$var wire 1 4 ram_en $end
$var wire 8 5 ram_dout [7:0] $end
$var wire 17 6 ram_a [16:0] $end
$var wire 1 7 program_finish $end
$var wire 1 8 hci_ram_wr $end
$var wire 8 9 hci_ram_dout [7:0] $end
$var wire 17 : hci_ram_a [16:0] $end
$var wire 3 ; hci_io_sel [2:0] $end
$var wire 1 < hci_io_full $end
$var wire 1 = hci_io_en $end
$var wire 8 > hci_io_dout [7:0] $end
$var wire 1 ? hci_active_out $end
$var wire 1 @ hci_active $end
$var wire 1 A cpumc_wr $end
$var wire 8 B cpumc_din [7:0] $end
$var wire 32 C cpumc_a [31:0] $end
$var wire 1 D cpu_rdy $end
$var wire 1 E cpu_ram_wr $end
$var wire 8 F cpu_ram_din [7:0] $end
$var wire 32 G cpu_ram_a [31:0] $end
$var wire 1 H Tx $end
$var reg 1 I q_hci_io_en $end
$var reg 1 J rst $end
$var reg 1 K rst_delay $end
$scope module cpu0 $end
$var wire 1 - clk_in $end
$var wire 32 L dbgreg_dout [31:0] $end
$var wire 8 M mem_din [7:0] $end
$var wire 8 N mem_dout [7:0] $end
$var wire 1 D rdy_in $end
$var wire 1 O rst_in $end
$var wire 1 E mem_wr $end
$var wire 32 P mem_a [31:0] $end
$var wire 1 Q mc_ib_rw_signal $end
$var wire 1 R mc_ib_ready $end
$var wire 8 S mc_ib_data [7:0] $end
$var wire 32 T mc_ib_address [31:0] $end
$var wire 1 < io_buffer_full $end
$var wire 1 U ib_fet_ready $end
$var wire 32 V ib_fet_instruction [31:0] $end
$var wire 32 W ib_fet_address [31:0] $end
$var wire 1 X fet_dec_issue_signal $end
$var wire 32 Y fet_dec_inst [31:0] $end
$var wire 5 Z dec_dis_shamt [4:0] $end
$var wire 5 [ dec_dis_rs2 [4:0] $end
$var wire 5 \ dec_dis_rs1 [4:0] $end
$var wire 1 ] dec_dis_ready $end
$var wire 5 ^ dec_dis_rd [4:0] $end
$var wire 40 _ dec_dis_inst_type [39:0] $end
$var wire 32 ` dec_dis_imm [31:0] $end
$scope module dec $end
$var wire 1 ] dis_ready_out $end
$var wire 1 O rst $end
$var wire 32 a immU [31:0] $end
$var wire 32 b immS [31:0] $end
$var wire 32 c immJ [31:0] $end
$var wire 32 d immI [31:0] $end
$var wire 32 e immB [31:0] $end
$var wire 1 X fet_issue_signal_in $end
$var wire 32 f fet_inst_in [31:0] $end
$var wire 5 g dis_shamt_out [4:0] $end
$var wire 5 h dis_rs2_out [4:0] $end
$var wire 5 i dis_rs1_out [4:0] $end
$var wire 5 j dis_rd_out [4:0] $end
$var reg 32 k dis_imm_out [31:0] $end
$var reg 40 l dis_inst_type_out [39:0] $end
$var integer 32 m dec_log [31:0] $end
$upscope $end
$scope module dis $end
$var wire 1 - clk $end
$var wire 32 n dec_imm_in [31:0] $end
$var wire 40 o dec_inst_type_in [39:0] $end
$var wire 5 p dec_rd_in [4:0] $end
$var wire 1 ] dec_ready_in $end
$var wire 5 q dec_rs1_in [4:0] $end
$var wire 5 r dec_rs2_in [4:0] $end
$var wire 5 s dec_shamt_in [4:0] $end
$var wire 1 O rst $end
$var integer 32 t cnt [31:0] $end
$var integer 32 u dis_log [31:0] $end
$upscope $end
$scope module fet $end
$var wire 1 - clk $end
$var wire 1 O rst $end
$var wire 1 U ib_ready_in $end
$var wire 32 v ib_instruction_in [31:0] $end
$var reg 32 w current_inst [31:0] $end
$var reg 32 x dec_inst_out [31:0] $end
$var reg 1 X dec_issue_signal_out $end
$var reg 32 y ib_address_out [31:0] $end
$var reg 32 z pc [31:0] $end
$var reg 2 { status [1:0] $end
$var integer 32 | cnt [31:0] $end
$var integer 32 } fet_log [31:0] $end
$upscope $end
$scope module ib $end
$var wire 1 - clk $end
$var wire 32 ~ iq_address_in [31:0] $end
$var wire 1 O rst $end
$var wire 1 R mc_ready_in $end
$var wire 8 !" mc_data_in [7:0] $end
$var reg 32 "" buffer [31:0] $end
$var reg 2 #" current [1:0] $end
$var reg 32 $" current_address [31:0] $end
$var reg 32 %" iq_instruction_out [31:0] $end
$var reg 1 U iq_ready_out $end
$var reg 32 &" mc_address_out [31:0] $end
$var reg 1 Q mc_rw_signal_out $end
$var reg 2 '" status [1:0] $end
$var reg 1 (" waiting $end
$var integer 32 )" cnt [31:0] $end
$var integer 32 *" ib_log [31:0] $end
$upscope $end
$scope module mc $end
$var wire 32 +" ib_address_in [31:0] $end
$var wire 1 Q ib_rw_signal_in $end
$var wire 8 ," ram_data_in [7:0] $end
$var wire 8 -" ram_data_out [7:0] $end
$var wire 1 O rst $end
$var wire 1 E ram_rw_signal_out $end
$var wire 32 ." ram_address_out [31:0] $end
$var wire 1 R ib_ready_out $end
$var wire 8 /" ib_data_out [7:0] $end
$upscope $end
$upscope $end
$scope module hci0 $end
$var wire 1 - clk $end
$var wire 32 0" cpu_dbgreg_din [31:0] $end
$var wire 8 1" io_din [7:0] $end
$var wire 1 = io_en $end
$var wire 1 < io_full $end
$var wire 3 2" io_sel [2:0] $end
$var wire 1 1 io_wr $end
$var wire 17 3" ram_a [16:0] $end
$var wire 8 4" ram_din [7:0] $end
$var wire 8 5" ram_dout [7:0] $end
$var wire 1 J rst $end
$var wire 1 , rx $end
$var wire 1 6" tx_full $end
$var wire 1 H tx $end
$var wire 1 7" rx_empty $end
$var wire 8 8" rd_data [7:0] $end
$var wire 1 9" parity_err $end
$var wire 8 :" io_in_rd_data [7:0] $end
$var wire 1 ;" io_in_full $end
$var wire 1 <" io_in_empty $end
$var wire 8 =" io_dout [7:0] $end
$var wire 32 >" d_cpu_cycle_cnt [31:0] $end
$var wire 1 ? active $end
$var reg 17 ?" d_addr [16:0] $end
$var reg 3 @" d_decode_cnt [2:0] $end
$var reg 2 A" d_err_code [1:0] $end
$var reg 17 B" d_execute_cnt [16:0] $end
$var reg 8 C" d_io_dout [7:0] $end
$var reg 8 D" d_io_in_wr_data [7:0] $end
$var reg 1 E" d_io_in_wr_en $end
$var reg 1 F" d_program_finish $end
$var reg 5 G" d_state [4:0] $end
$var reg 8 H" d_tx_data [7:0] $end
$var reg 1 I" d_wr_en $end
$var reg 1 J" io_in_rd_en $end
$var reg 1 7 program_finish $end
$var reg 17 K" q_addr [16:0] $end
$var reg 32 L" q_cpu_cycle_cnt [31:0] $end
$var reg 3 M" q_decode_cnt [2:0] $end
$var reg 2 N" q_err_code [1:0] $end
$var reg 17 O" q_execute_cnt [16:0] $end
$var reg 8 P" q_io_dout [7:0] $end
$var reg 1 Q" q_io_en $end
$var reg 8 R" q_io_in_wr_data [7:0] $end
$var reg 1 S" q_io_in_wr_en $end
$var reg 5 T" q_state [4:0] $end
$var reg 8 U" q_tx_data [7:0] $end
$var reg 1 V" q_wr_en $end
$var reg 1 8 ram_wr $end
$var reg 1 W" rd_en $end
$scope module io_in_fifo $end
$var wire 10 X" addr_bits_wide_1 [9:0] $end
$var wire 1 - clk $end
$var wire 1 Y" d_empty $end
$var wire 1 Z" d_full $end
$var wire 1 <" empty $end
$var wire 1 ;" full $end
$var wire 8 [" rd_data [7:0] $end
$var wire 1 J" rd_en $end
$var wire 1 \" rd_en_prot $end
$var wire 1 J reset $end
$var wire 8 ]" wr_data [7:0] $end
$var wire 1 S" wr_en $end
$var wire 1 ^" wr_en_prot $end
$var wire 10 _" d_wr_ptr [9:0] $end
$var wire 10 `" d_rd_ptr [9:0] $end
$var wire 8 a" d_data [7:0] $end
$var reg 1 b" q_empty $end
$var reg 1 c" q_full $end
$var reg 10 d" q_rd_ptr [9:0] $end
$var reg 10 e" q_wr_ptr [9:0] $end
$upscope $end
$scope module uart_blk $end
$var wire 1 - clk $end
$var wire 1 f" d_rx_parity_err $end
$var wire 1 9" parity_err $end
$var wire 1 W" rd_en $end
$var wire 1 J reset $end
$var wire 1 , rx $end
$var wire 8 g" tx_data [7:0] $end
$var wire 1 V" wr_en $end
$var wire 1 6" tx_full $end
$var wire 8 h" tx_fifo_rd_data [7:0] $end
$var wire 1 i" tx_fifo_empty $end
$var wire 1 j" tx_done_tick $end
$var wire 1 H tx $end
$var wire 1 k" rx_parity_err $end
$var wire 8 l" rx_fifo_wr_data [7:0] $end
$var wire 1 7" rx_empty $end
$var wire 1 m" rx_done_tick $end
$var wire 8 n" rx_data [7:0] $end
$var wire 1 o" baud_clk_tick $end
$var reg 1 p" q_rx_parity_err $end
$scope module uart_baud_clk_blk $end
$var wire 1 - clk $end
$var wire 1 J reset $end
$var wire 16 q" d_cnt [15:0] $end
$var wire 1 o" baud_clk_tick $end
$var reg 16 r" q_cnt [15:0] $end
$upscope $end
$scope module uart_rx_blk $end
$var wire 1 o" baud_clk_tick $end
$var wire 1 - clk $end
$var wire 1 J reset $end
$var wire 1 , rx $end
$var wire 8 s" rx_data [7:0] $end
$var wire 1 m" rx_done_tick $end
$var wire 1 k" parity_err $end
$var reg 8 t" d_data [7:0] $end
$var reg 3 u" d_data_bit_idx [2:0] $end
$var reg 1 v" d_done_tick $end
$var reg 4 w" d_oversample_tick_cnt [3:0] $end
$var reg 1 x" d_parity_err $end
$var reg 5 y" d_state [4:0] $end
$var reg 8 z" q_data [7:0] $end
$var reg 3 {" q_data_bit_idx [2:0] $end
$var reg 1 m" q_done_tick $end
$var reg 4 |" q_oversample_tick_cnt [3:0] $end
$var reg 1 k" q_parity_err $end
$var reg 1 }" q_rx $end
$var reg 5 ~" q_state [4:0] $end
$upscope $end
$scope module uart_rx_fifo $end
$var wire 3 !# addr_bits_wide_1 [2:0] $end
$var wire 1 - clk $end
$var wire 1 "# d_empty $end
$var wire 1 ## d_full $end
$var wire 1 7" empty $end
$var wire 1 $# full $end
$var wire 8 %# rd_data [7:0] $end
$var wire 1 W" rd_en $end
$var wire 1 &# rd_en_prot $end
$var wire 1 J reset $end
$var wire 8 '# wr_data [7:0] $end
$var wire 1 m" wr_en $end
$var wire 1 (# wr_en_prot $end
$var wire 3 )# d_wr_ptr [2:0] $end
$var wire 3 *# d_rd_ptr [2:0] $end
$var wire 8 +# d_data [7:0] $end
$var reg 1 ,# q_empty $end
$var reg 1 -# q_full $end
$var reg 3 .# q_rd_ptr [2:0] $end
$var reg 3 /# q_wr_ptr [2:0] $end
$upscope $end
$scope module uart_tx_blk $end
$var wire 1 o" baud_clk_tick $end
$var wire 1 - clk $end
$var wire 1 J reset $end
$var wire 1 H tx $end
$var wire 1 j" tx_done_tick $end
$var wire 1 0# tx_start $end
$var wire 8 1# tx_data [7:0] $end
$var reg 4 2# d_baud_clk_tick_cnt [3:0] $end
$var reg 8 3# d_data [7:0] $end
$var reg 3 4# d_data_bit_idx [2:0] $end
$var reg 1 5# d_parity_bit $end
$var reg 5 6# d_state [4:0] $end
$var reg 1 7# d_tx $end
$var reg 1 8# d_tx_done_tick $end
$var reg 4 9# q_baud_clk_tick_cnt [3:0] $end
$var reg 8 :# q_data [7:0] $end
$var reg 3 ;# q_data_bit_idx [2:0] $end
$var reg 1 <# q_parity_bit $end
$var reg 5 =# q_state [4:0] $end
$var reg 1 ># q_tx $end
$var reg 1 j" q_tx_done_tick $end
$upscope $end
$scope module uart_tx_fifo $end
$var wire 10 ?# addr_bits_wide_1 [9:0] $end
$var wire 1 - clk $end
$var wire 1 @# d_empty $end
$var wire 1 A# d_full $end
$var wire 1 i" empty $end
$var wire 1 6" full $end
$var wire 8 B# rd_data [7:0] $end
$var wire 1 j" rd_en $end
$var wire 1 C# rd_en_prot $end
$var wire 1 J reset $end
$var wire 8 D# wr_data [7:0] $end
$var wire 1 V" wr_en $end
$var wire 1 E# wr_en_prot $end
$var wire 10 F# d_wr_ptr [9:0] $end
$var wire 10 G# d_rd_ptr [9:0] $end
$var wire 8 H# d_data [7:0] $end
$var reg 1 I# q_empty $end
$var reg 1 J# q_full $end
$var reg 10 K# q_rd_ptr [9:0] $end
$var reg 10 L# q_wr_ptr [9:0] $end
$upscope $end
$upscope $end
$upscope $end
$scope module ram0 $end
$var wire 17 M# a_in [16:0] $end
$var wire 1 - clk_in $end
$var wire 8 N# d_in [7:0] $end
$var wire 1 4 en_in $end
$var wire 1 O# r_nw_in $end
$var wire 1 P# ram_bram_we $end
$var wire 8 Q# ram_bram_dout [7:0] $end
$var wire 8 R# d_out [7:0] $end
$scope module ram_bram $end
$var wire 17 S# addr_a [16:0] $end
$var wire 1 - clk $end
$var wire 8 T# din_a [7:0] $end
$var wire 8 U# dout_a [7:0] $end
$var wire 1 P# we $end
$var reg 17 V# q_addr_a [16:0] $end
$var integer 32 W# i [31:0] $end
$upscope $end
$upscope $end
$upscope $end
$upscope $end
$enddefinitions $end
#0
$dumpvars
b100000000000000000 W#
bx V#
bx U#
bz T#
b0 S#
bx R#
bx Q#
0P#
1O#
bz N#
b0 M#
bx L#
bx K#
xJ#
xI#
bx H#
bx G#
bx F#
xE#
bx D#
0C#
bx B#
xA#
x@#
b1 ?#
1>#
b1 =#
0<#
b0 ;#
b0 :#
b0 9#
08#
17#
b1 6#
05#
b0 4#
b0 3#
b0 2#
bx 1#
x0#
bx /#
bx .#
x-#
x,#
bx +#
bx *#
bx )#
0(#
b0 '#
0&#
bx %#
x$#
x##
x"#
b1 !#
b1 ~"
1}"
b0 |"
b0 {"
b0 z"
b1 y"
0x"
b0 w"
0v"
b0 u"
b0 t"
b0 s"
b0 r"
b1 q"
0p"
0o"
bx n"
0m"
b0 l"
0k"
0j"
xi"
bx h"
bx g"
0f"
bx e"
bx d"
xc"
xb"
bx a"
bx `"
bx _"
x^"
bx ]"
0\"
bx ["
xZ"
xY"
b1 X"
0W"
xV"
bx U"
bx T"
xS"
bx R"
xQ"
bx P"
bx O"
bx N"
bx M"
bx L"
bx K"
0J"
0I"
b0 H"
bx G"
0F"
0E"
b0 D"
b0 C"
bx B"
bx A"
bx @"
bx ?"
bx >"
bx ="
x<"
x;"
bx :"
09"
bx 8"
x7"
x6"
bx 5"
bx 4"
bx 3"
b0 2"
bz 1"
bz 0"
b0 /"
b0 ."
bz -"
bx ,"
bx +"
b10000000000000000000000000000011 *"
b0 )"
x("
b0 '"
bx &"
bx %"
bx $"
bx #"
bx ""
b0 !"
bx ~
b10000000000000000000000000000100 }
b0 |
b0 {
b0 z
bx y
bx x
bx w
bx v
b10000000000000000000000000000110 u
b0 t
bx s
bx r
bx q
bx p
b100111001001111010100000010000000100000 o
b0 n
b10000000000000000000000000000101 m
b100111001001111010100000010000000100000 l
b0 k
bx j
bx i
bx h
bx g
bx f
bx0 e
bx d
bx0 c
bx b
bx000000000000 a
b0 `
b100111001001111010100000010000000100000 _
bx ^
x]
bx \
bx [
bx Z
bx Y
xX
bx W
bx V
xU
bx T
b0 S
0R
xQ
b0 P
1O
bz N
bx M
bz L
1K
1J
xI
1H
b0 G
bx F
0E
1D
b0 C
bz B
0A
0@
x?
bx >
0=
x<
b0 ;
bx :
bx 9
08
x7
b0 6
bx 5
14
03
bx 2
01
bz 0
bz /
bz .
0-
z,
1+
0*
bx )
bx (
z'
bx &
bx %
bz $
z#
bz "
bz !
$end
#1000
b110111 F
b110111 M
b110111 ,"
1Y"
0Z"
0##
1"#
1@#
0A#
b110111 2
b110111 4"
b110111 5
b110111 R#
b0 Z
b0 g
b0 s
b0 ^
b0 j
b0 p
b0 [
b0 h
b0 r
b0 \
b0 i
b0 q
b0 c
b0 a
b0 e
b0 b
b0 d
b0 _"
b0 `"
b0 )#
b0 *#
00#
b0 F#
b0 G#
0^"
0E#
b0 A"
b0 ?"
b0 B"
b0 @"
b1 G"
b0 >"
b110111 Q#
b110111 U#
b0 V#
b0 ""
b0 #"
b0 T
b0 &"
b0 +"
0Q
b0 V
b0 v
b0 %"
0U
b1 )"
b0 Y
b0 f
b0 x
0]
0X
b1 |
b1 t
0;"
0c"
1<"
1b"
b0 e"
b0 d"
0$#
0-#
17"
1,#
b0 /#
b0 .#
0<
06"
0J#
1i"
1I#
b0 L#
b0 K#
b0 >
b0 ="
b0 P"
b0 L"
0Q"
b0 R"
b0 ]"
0S"
0V"
b0 U"
b0 g"
b0 D#
b0 N"
b0 :
b0 3"
b0 K"
b0 O"
b0 M"
1?
b1 T"
0I
1-
1*
#2000
0-
0*
#3000
b10 t
b10 |
b10 )"
1-
1*
#4000
0-
0*
#5000
b11 )"
b11 |
b11 t
1-
1*
#6000
0-
0*
#7000
b100 t
b100 |
b100 )"
1-
1*
#8000
0-
0*
#9000
b101 )"
b101 |
b101 t
1-
1*
#10000
0+
0-
0*
#11000
b110 t
b110 |
b110 )"
0K
1-
1*
#12000
0-
0*
#13000
xR
b0xx0xxx S
b0xx0xxx !"
b0xx0xxx /"
xO
b111 )"
b111 |
b111 t
0J
1-
1*
#14000
0-
0*
#15000
b0xx0xxx F
b0xx0xxx M
b0xx0xxx ,"
b0xx0xxx 2
b0xx0xxx 4"
b0xx0xxx 5
b0xx0xxx R#
x=
x4
bx ;
bx 2"
bx 6
bx M#
bx S#
1R
b0xx0xxx S
b0xx0xxx !"
b0xx0xxx /"
bx C
0O
bx G
bx P
bx ."
b10 q"
07
b1000 t
b100 z
b0 W
b0 y
b0 ~
b1 {
b1000 |
1("
b1 '"
bx T
bx &"
bx +"
b1000 )"
b1 r"
z}"
1-
1*
#16000
0-
0*
#17000
0=
14
bx S
bx !"
bx /"
b0 ;
b0 2"
b0 6
b0 M#
b0 S#
bx F
bx M
bx ,"
b0 C
bx 2
bx 4"
bx 5
bx R#
b0 G
b0 P
b0 ."
b11 q"
bx Q#
bx U#
bx V#
0("
b0 T
b0 &"
b0 +"
b1001 )"
b1001 |
b1001 t
xQ"
xI
b10 r"
1-
1*
#18000
0-
0*
#19000
x=
x4
bx ;
bx 2"
bx 6
bx M#
bx S#
b0xx0xxx S
b0xx0xxx !"
b0xx0xxx /"
bx C
b0xx0xxx F
b0xx0xxx M
b0xx0xxx ,"
bx G
bx P
bx ."
b0xx0xxx 2
b0xx0xxx 4"
b0xx0xxx 5
b0xx0xxx R#
b100 q"
0I
0Q"
b1010 t
b1010 |
1("
bx T
bx &"
bx +"
b1 #"
b0xxxxxxxx ""
b1010 )"
b110111 Q#
b110111 U#
b0 V#
b11 r"
1-
1*
#20000
0-
0*
#21000
0=
14
bx S
bx !"
bx /"
b0 ;
b0 2"
b0 6
b0 M#
b0 S#
bx F
bx M
bx ,"
b0 C
bx 2
bx 4"
bx 5
bx R#
b0 G
b0 P
b0 ."
b101 q"
bx Q#
bx U#
bx V#
0("
b0 T
b0 &"
b0 +"
b1011 )"
b1011 |
b1011 t
xQ"
xI
b100 r"
1-
1*
#22000
0-
0*
#23000
x=
x4
bx ;
bx 2"
bx 6
bx M#
bx S#
b0xx0xxx S
b0xx0xxx !"
b0xx0xxx /"
bx C
b0xx0xxx F
b0xx0xxx M
b0xx0xxx ,"
bx G
bx P
bx ."
b0xx0xxx 2
b0xx0xxx 4"
b0xx0xxx 5
b0xx0xxx R#
b110 q"
0I
0Q"
b1100 t
b1100 |
1("
bx T
bx &"
bx +"
b10 #"
b0xxxxxxxxxxxxxxxx ""
b1100 )"
b110111 Q#
b110111 U#
b0 V#
b101 r"
1-
1*
#24000
0-
0*
#25000
0=
14
bx S
bx !"
bx /"
b0 ;
b0 2"
b0 6
b0 M#
b0 S#
bx F
bx M
bx ,"
b0 C
bx 2
bx 4"
bx 5
bx R#
b0 G
b0 P
b0 ."
b111 q"
bx Q#
bx U#
bx V#
0("
b0 T
b0 &"
b0 +"
b1101 )"
b1101 |
b1101 t
xQ"
xI
b110 r"
1-
1*
#26000
0-
0*
#27000
x=
x4
bx ;
bx 2"
bx 6
bx M#
bx S#
b0xx0xxx S
b0xx0xxx !"
b0xx0xxx /"
bx C
b0xx0xxx F
b0xx0xxx M
b0xx0xxx ,"
bx G
bx P
bx ."
b0xx0xxx 2
b0xx0xxx 4"
b0xx0xxx 5
b0xx0xxx R#
b1000 q"
0I
0Q"
b1110 t
b1110 |
1("
bx T
bx &"
bx +"
b11 #"
b0xxxxxxxxxxxxxxxxxxxxxxxx ""
b1110 )"
b110111 Q#
b110111 U#
b0 V#
b111 r"
1-
1*
#28000
0-
0*
#29000
0=
14
bx S
bx !"
bx /"
b0 ;
b0 2"
b0 6
b0 M#
b0 S#
bx F
bx M
bx ,"
b0 C
bx 2
bx 4"
bx 5
bx R#
b0 G
b0 P
b0 ."
b1001 q"
bx Q#
bx U#
bx V#
0("
b0 T
b0 &"
b0 +"
b1111 )"
b1111 |
b1111 t
xQ"
xI
b1000 r"
1-
1*
#30000
0-
0*
#31000
b110111 S
b110111 !"
b110111 /"
b110111 F
b110111 M
b110111 ,"
b110111 2
b110111 4"
b110111 5
b110111 R#
b1010 q"
0I
0Q"
b10000 t
b10000 |
b10 '"
b0 #"
bx ""
b10000 )"
b110111 Q#
b110111 U#
b0 V#
b1001 r"
1-
1*
#32000
0-
0*
#33000
b1011 q"
b0 '"
1U
b0 ""
bx V
bx v
bx %"
b10001 )"
b10001 |
b10001 t
b1010 r"
1-
1*
#34000
0-
0*
#35000
b1100 q"
b10010 t
b10 {
b10010 |
1("
b1 '"
b0 $"
b0 V
b0 v
b0 %"
0U
b10010 )"
b1011 r"
1-
1*
#36000
0-
0*
#37000
bx Z
bx g
bx s
bx ^
bx j
bx p
bx [
bx h
bx r
bx \
bx i
bx q
bx0 c
bx000000000000 a
bx0 e
bx b
bx d
b1101 q"
0("
b10011 )"
bx Y
bx f
bx x
1]
1X
b0 {
b10011 |
b10011 t
b1100 r"
1-
1*
#38000
0-
0*
#39000
b1 ;
b1 2"
b1 6
b1 M#
b1 S#
b1 C
b0 Z
b0 g
b0 s
b0 ^
b0 j
b0 p
b0 [
b0 h
b0 r
b0 \
b0 i
b0 q
b0 c
b0 a
b0 e
b0 b
b0 d
b1 G
b1 P
b1 ."
b1110 q"
b10100 t
b1000 z
b100 W
b100 y
b100 ~
b1 {
b0 Y
b0 f
b0 x
0]
0X
b10100 |
1("
b1 T
b1 &"
b1 +"
b1 #"
b110111 ""
b10100 )"
b1101 r"
1-
1*
#40000
0-
0*
#41000
b1 S
b1 !"
b1 /"
b0 ;
b0 2"
b0 6
b0 M#
b0 S#
b1 F
b1 M
b1 ,"
b0 C
b1 2
b1 4"
b1 5
b1 R#
b0 G
b0 P
b0 ."
b1111 q"
b1 Q#
b1 U#
b1 V#
0("
b0 T
b0 &"
b0 +"
b10101 )"
b10101 |
b10101 t
b1110 r"
1-
1*
#42000
0-
0*
#43000
b10 ;
b10 2"
b10 6
b10 M#
b10 S#
b110111 S
b110111 !"
b110111 /"
b10 C
b110111 F
b110111 M
b110111 ,"
b10 G
b10 P
b10 ."
b110111 2
b110111 4"
b110111 5
b110111 R#
b10000 q"
b10110 t
b10110 |
1("
b10 T
b10 &"
b10 +"
b10 #"
b100110111 ""
b10110 )"
b110111 Q#
b110111 U#
b0 V#
b1111 r"
1-
1*
#44000
0-
0*
#45000
b10 S
b10 !"
b10 /"
b0 ;
b0 2"
b0 6
b0 M#
b0 S#
b10 F
b10 M
b10 ,"
b0 C
b10 2
b10 4"
b10 5
b10 R#
b0 G
b0 P
b0 ."
b10001 q"
b10 Q#
b10 U#
b10 V#
0("
b0 T
b0 &"
b0 +"
b10111 )"
b10111 |
b10111 t
b10000 r"
1-
1*
#46000
0-
0*
#47000
b11 ;
b11 2"
b11 6
b11 M#
b11 S#
b110111 S
b110111 !"
b110111 /"
b11 C
b110111 F
b110111 M
b110111 ,"
b11 G
b11 P
b11 ."
b110111 2
b110111 4"
b110111 5
b110111 R#
b10010 q"
b11000 t
b11000 |
1("
b11 T
b11 &"
b11 +"
b11 #"
b100000000100110111 ""
b11000 )"
b110111 Q#
b110111 U#
b0 V#
b10001 r"
1-
1*
#48000
0-
0*
#49000
b0 S
b0 !"
b0 /"
b0 ;
b0 2"
b0 6
b0 M#
b0 S#
b0 F
b0 M
b0 ,"
b0 C
b0 2
b0 4"
b0 5
b0 R#
b0 G
b0 P
b0 ."
b10011 q"
b0 Q#
b0 U#
b11 V#
0("
b0 T
b0 &"
b0 +"
b11001 )"
b11001 |
b11001 t
b10010 r"
1-
1*
#50000
0-
0*
#51000
b110111 S
b110111 !"
b110111 /"
b110111 F
b110111 M
b110111 ,"
b110111 2
b110111 4"
b110111 5
b110111 R#
b10100 q"
b11010 t
b11010 |
b10 '"
b0 #"
b11010 )"
b110111 Q#
b110111 U#
b0 V#
b10011 r"
1-
1*
#52000
0-
0*
#53000
b10101 q"
b0 '"
1U
b0 ""
b100000000100110111 V
b100000000100110111 v
b100000000100110111 %"
b11011 )"
b11011 |
b11011 t
b10100 r"
1-
1*
#54000
0-
0*
#55000
b100 ;
b100 2"
b100 6
b100 M#
b100 S#
b100 C
b100 G
b100 P
b100 ."
b10110 q"
b11100 t
b100000000100110111 w
b10 {
b11100 |
1("
b1 '"
b100 $"
b100 T
b100 &"
b100 +"
b0 V
b0 v
b0 %"
0U
b11100 )"
b10101 r"
1-
1*
#56000
0-
0*
#57000
b11101111 S
b11101111 !"
b11101111 /"
b0 ;
b0 2"
b0 6
b0 M#
b0 S#
b11101111 F
b11101111 M
b11101111 ,"
b0 C
b100000000000000000 `
b100000000000000000 k
b100000000000000000 n
b11101111 2
b11101111 4"
b11101111 5
b11101111 R#
b0 G
b0 P
b0 ."
b10 ^
b10 j
b10 p
b100 \
b100 i
b100 q
b100000000000000000 c
b100000000000000000 a
b10 e
b10 b
b100110001010101010010010010000000100000 _
b100110001010101010010010010000000100000 l
b100110001010101010010010010000000100000 o
b10111 q"
b11101111 Q#
b11101111 U#
b100 V#
0("
b0 T
b0 &"
b0 +"
b11101 )"
b100000000100110111 Y
b100000000100110111 f
b100000000100110111 x
1]
1X
b0 {
b11101 |
b11101 t
b10110 r"
1-
1*
#58000
0-
0*
#59000
b101 ;
b101 2"
b101 6
b101 M#
b101 S#
b110111 S
b110111 !"
b110111 /"
b101 C
b110111 F
b110111 M
b110111 ,"
b0 ^
b0 j
b0 p
b0 \
b0 i
b0 q
b0 c
b0 a
b0 e
b0 b
b101 G
b101 P
b101 ."
b110111 2
b110111 4"
b110111 5
b110111 R#
b11000 q"
b11110 t
b1100 z
b1000 W
b1000 y
b1000 ~
b1 {
b0 Y
b0 f
b0 x
0]
0X
b11110 |
1("
b101 T
b101 &"
b101 +"
b1 #"
b11101111 ""
b11110 )"
b110111 Q#
b110111 U#
b0 V#
b10111 r"
1-
1*
#60000
0-
0*
#61000
b10000 S
b10000 !"
b10000 /"
b0 ;
b0 2"
b0 6
b0 M#
b0 S#
b10000 F
b10000 M
b10000 ,"
b0 C
b10000 2
b10000 4"
b10000 5
b10000 R#
b0 G
b0 P
b0 ."
b11001 q"
b10000 Q#
b10000 U#
b101 V#
0("
b0 T
b0 &"
b0 +"
b11111 )"
b11111 |
b11111 t
b11000 r"
1-
1*
#62000
0-
0*
#63000
b110 ;
b110 2"
b110 6
b110 M#
b110 S#
b110111 S
b110111 !"
b110111 /"
b110 C
b110111 F
b110111 M
b110111 ,"
b110 G
b110 P
b110 ."
b110111 2
b110111 4"
b110111 5
b110111 R#
b11010 q"
b100000 t
b100000 |
1("
b110 T
b110 &"
b110 +"
b10 #"
b1000011101111 ""
b100000 )"
b110111 Q#
b110111 U#
b0 V#
b11001 r"
1-
1*
#64000
0-
0*
#65000
b1000000 S
b1000000 !"
b1000000 /"
b0 ;
b0 2"
b0 6
b0 M#
b0 S#
b1000000 F
b1000000 M
b1000000 ,"
b0 C
b1000000 2
b1000000 4"
b1000000 5
b1000000 R#
b0 G
b0 P
b0 ."
b11011 q"
b1000000 Q#
b1000000 U#
b110 V#
0("
b0 T
b0 &"
b0 +"
b100001 )"
b100001 |
b100001 t
b11010 r"
1-
1*
#66000
0-
0*
#67000
b111 ;
b111 2"
b111 6
b111 M#
b111 S#
b110111 S
b110111 !"
b110111 /"
b111 C
b110111 F
b110111 M
b110111 ,"
b111 G
b111 P
b111 ."
b110111 2
b110111 4"
b110111 5
b110111 R#
b11100 q"
b100010 t
b100010 |
1("
b111 T
b111 &"
b111 +"
b11 #"
b10000000001000011101111 ""
b100010 )"
b110111 Q#
b110111 U#
b0 V#
b11011 r"
1-
1*
#68000
0-
0*
#69000
b11011 S
b11011 !"
b11011 /"
b0 ;
b0 2"
b0 6
b0 M#
b0 S#
b11011 F
b11011 M
b11011 ,"
b0 C
b11011 2
b11011 4"
b11011 5
b11011 R#
b0 G
b0 P
b0 ."
b11101 q"
b11011 Q#
b11011 U#
b111 V#
0("
b0 T
b0 &"
b0 +"
b100011 )"
b100011 |
b100011 t
b11100 r"
1-
1*
#70000
0-
0*
